{
	"multipart": [
		{
			"apply": {
				"model": "infusefood:block/essence_node"
			}
		},
		{
			"when": {
				"north": "true"
			},
			"apply": {
				"model": "infusefood:block/essence_node_side",
				"uvlock": false
			}
		},
		{
			"when": {
				"east": "true"
			},
			"apply": {
				"model": "infusefood:block/essence_node_side",
				"y": 90,
				"uvlock": false
			}
		},
		{
			"when": {
				"south": "true"
			},
			"apply": {
				"model": "infusefood:block/essence_node_side",
				"y": 180,
				"uvlock": false
			}
		},
		{
			"when": {
				"west": "true"
			},
			"apply": {
				"model": "infusefood:block/essence_node_side",
				"y": 270,
				"uvlock": false
			}
		}
	]
}